2018-12-24 21:02:40,190 - Mike - DEBUG - doubler function executing
2018-12-24 21:02:40,190 - Mike - DEBUG - doubler function ended with: 0
2018-12-24 21:02:40,190 - George - DEBUG - doubler function executing
2018-12-24 21:02:40,190 - George - DEBUG - doubler function ended with: 2
2018-12-24 21:02:40,195 - Wanda - DEBUG - doubler function executing
2018-12-24 21:02:40,200 - Wanda - DEBUG - doubler function ended with: 4
2018-12-24 21:02:40,201 - Dingbat - DEBUG - doubler function executing
2018-12-24 21:02:40,201 - Dingbat - DEBUG - doubler function ended with: 6
2018-12-24 21:02:40,201 - Nina - DEBUG - doubler function executing
2018-12-24 21:02:40,201 - Nina - DEBUG - doubler function ended with: 8
2018-12-24 21:02:59,082 - Mike - DEBUG - doubler function executing
2018-12-24 21:02:59,082 - Mike - DEBUG - doubler function ended with: 0
2018-12-24 21:02:59,083 - George - DEBUG - doubler function executing
2018-12-24 21:02:59,083 - George - DEBUG - doubler function ended with: 2
2018-12-24 21:02:59,083 - Wanda - DEBUG - doubler function executing
2018-12-24 21:02:59,083 - Wanda - DEBUG - doubler function ended with: 4
2018-12-24 21:02:59,083 - Dingbat - DEBUG - doubler function executing
2018-12-24 21:02:59,084 - Dingbat - DEBUG - doubler function ended with: 6
2018-12-24 21:02:59,084 - Nina - DEBUG - doubler function executing
2018-12-24 21:02:59,084 - Nina - DEBUG - doubler function ended with: 8
2018-12-24 21:02:59,837 - Mike - DEBUG - doubler function executing
2018-12-24 21:02:59,837 - Mike - DEBUG - doubler function ended with: 0
2018-12-24 21:02:59,838 - George - DEBUG - doubler function executing
2018-12-24 21:02:59,838 - George - DEBUG - doubler function ended with: 2
2018-12-24 21:02:59,838 - Wanda - DEBUG - doubler function executing
2018-12-24 21:02:59,838 - Wanda - DEBUG - doubler function ended with: 4
2018-12-24 21:02:59,838 - Dingbat - DEBUG - doubler function executing
2018-12-24 21:02:59,838 - Dingbat - DEBUG - doubler function ended with: 6
2018-12-24 21:02:59,838 - Nina - DEBUG - doubler function executing
2018-12-24 21:02:59,839 - Nina - DEBUG - doubler function ended with: 8
2018-12-24 21:19:50,168 - Mike - DEBUG - doubler function executing
2018-12-24 21:19:50,169 - Mike - DEBUG - doubler function ended with: 0
2018-12-24 21:19:50,169 - George - DEBUG - doubler function executing
2018-12-24 21:19:50,169 - George - DEBUG - doubler function ended with: 2
2018-12-24 21:19:50,170 - Wanda - DEBUG - doubler function executing
2018-12-24 21:19:50,170 - Wanda - DEBUG - doubler function ended with: 4
2018-12-24 21:19:50,170 - Dingbat - DEBUG - doubler function executing
2018-12-24 21:19:50,170 - Nina - DEBUG - doubler function executing
2018-12-24 21:19:50,170 - Dingbat - DEBUG - doubler function ended with: 6
2018-12-24 21:19:50,170 - Nina - DEBUG - doubler function ended with: 8
2018-12-24 21:19:50,860 - Mike - DEBUG - doubler function executing
2018-12-24 21:19:50,861 - Mike - DEBUG - doubler function ended with: 0
2018-12-24 21:19:50,861 - George - DEBUG - doubler function executing
2018-12-24 21:19:50,861 - George - DEBUG - doubler function ended with: 2
2018-12-24 21:19:50,862 - Wanda - DEBUG - doubler function executing
2018-12-24 21:19:50,862 - Wanda - DEBUG - doubler function ended with: 4
2018-12-24 21:19:50,862 - Dingbat - DEBUG - doubler function executing
2018-12-24 21:19:50,862 - Dingbat - DEBUG - doubler function ended with: 6
2018-12-24 21:19:50,862 - Nina - DEBUG - doubler function executing
2018-12-24 21:19:50,862 - Nina - DEBUG - doubler function ended with: 8
